Report2_Exploring Data
…
Likelihood ratio test for genotype effect:

get_model_data(gen_alphaR18, "lrt")

## # A tibble: 22 x 8
##    VAR   model      npar logLik    AIC       LRT    Df `Pr(>Chisq)`
##    <chr> <chr>     <int>  <dbl>  <dbl>     <dbl> <dbl>        <dbl>
##  1 GERM  Genotype      5 -1545.  3100.  1.60e+ 2     1    9.52e- 37
##  2 GERM  rep:block     5 -1467.  2945.  4.78e+ 0     1    2.87e-  2
##  3 DtF   Genotype      5 -3971.  7953.  9.39e+ 2     1    4.06e-206
##  4 DtF   rep:block     5 -3502.  7014. -2.74e- 8     1    1   e+  0
##  5 DtP   Genotype      5 -3918.  7845.  8.08e+ 2     1    9.86e-178
##  6 DtP   rep:block     5 -3514.  7037.  9.09e-13     1    1.00e+  0
##  7 GDD_F Genotype      5 -6091. 12191.  9.33e+ 2     1    7.12e-205
##  8 GDD_F rep:block     5 -5624. 11258. -3.15e- 6     1    1   e+  0
##  9 GDD_P Genotype      5 -6279. 12567.  8.54e+ 2     1    7.72e-188
## 10 GDD_P rep:block     5 -5851. 11713. -1.64e-11     1    1   e+  0
## # ... with 12 more rows
…
